module gitlab.com/4406arthur/faas-job

go 1.14

require (
	github.com/golang/protobuf v1.4.2 // indirect
	github.com/imdario/mergo v0.3.9 // indirect
	golang.org/x/crypto v0.0.0-20200510223506-06a226fb4e37 // indirect
	golang.org/x/net v0.0.0-20200520182314-0ba52f642ac2 // indirect
	golang.org/x/oauth2 v0.0.0-20200107190931-bf48bf16ab8d // indirect
	golang.org/x/sys v0.0.0-20200501052902-10377860bb8e // indirect
	golang.org/x/time v0.0.0-20200416051211-89c76fbcd5d1 // indirect
	google.golang.org/appengine v1.6.6 // indirect
	gopkg.in/check.v1 v1.0.0-20190902080502-41f04d3bba15 // indirect
	k8s.io/api v0.18.3
	k8s.io/apimachinery v0.18.3
	k8s.io/client-go v0.18.3
)
